Elements(M)  CPUtoGPU(ms)  Kernel(ms)    GPUtoCPU(ms)
1            0.68          0.08          0.66
2            1.13          0.15          1.33
4            2.63          0.29          2.46
8            4.86          0.55          4.89
16           9.23          1.09          9.85
32           18.08         2.18          19.59
64           35.83         4.12          39.26
128          70.90         8.21          78.48
256          141.39        15.44         156.82